Statistical Analysis
…
The high burden model has the linear equation of TB incidence = 194 + 126(Male) where male would equal 1. The full data model has the linear equation of TB incidence = 82.6 + 48(Male). Since many of the countries in the full data set have very low incidence, the coefficients for the intercept and subgroup variable are much lower. The model has more data points with low values.

Prediction model for TB Incidence

We can also try to predict the approximate TB incidence for a group. For this example, we will include subgroup and setting as predictors.

#prediction model using subgroup and setting
predinclm_fit <- lm_mod %>% 
  fit(`TB incidence (new infections per 100 000 population)` ~ subgroup + setting,
      data = highburden) #fit linear model
predincfittable <- tidy(predinclm_fit) 
print(predincfittable)

# A tibble: 50 × 5
   term                            estimate std.error statistic  p.value
   <chr>                              <dbl>     <dbl>     <dbl>    <dbl>
 1 (Intercept)                         287.      54.6      5.27 3.20e- 6
 2 subgroupMale                        126.      15.4      8.18 1.17e-10
 3 settingAzerbaijan                  -292.      76.4     -3.83 3.73e- 4
 4 settingBangladesh                  -132.      76.4     -1.73 8.97e- 2
 5 settingBelarus                     -324.      76.4     -4.24 1.01e- 4
 6 settingBotswana                    -111.      76.4     -1.45 1.54e- 1
 7 settingBrazil                      -305.      76.4     -4.00 2.21e- 4
 8 settingCameroon                    -177.      76.4     -2.32 2.45e- 2
 9 settingCentral African Republic     189.      76.4      2.47 1.70e- 2
10 settingChina                       -293.      76.4     -3.83 3.71e- 4
# … with 40 more rows
…
