Data Exploring, Cleaning, and Wrangling
…
Cleaning

Now the data cleaning can get started. This phase will coincide with data exploration, so more cleaning will most likely occur in the exploratory_analysis.qmd.

To start, I want the indicators to move to columns using pivot_wider() function so each indicator has a column. I will also subset the columns I would like to keep moving into the exploratory phase. The wide version of the data will be assigned to wide_data.

# Pivot data wider so each indicator has a column
wide_data <- rawdata %>% 
  select(c(setting, year, indicator_name,
           indicator_abbr, dimension, subgroup,
           estimate, population)) %>% 
  pivot_wider(names_from = "indicator_name", values_from = "estimate")
slice(wide_data)

# A tibble: 7,473 × 20
   setting  year indic…¹ dimen…² subgr…³ popul…⁴ BCG i…⁵ Peopl…⁶ Peopl…⁷ Peopl…⁸
   <chr>   <dbl> <chr>   <chr>   <chr>     <dbl>   <dbl>   <dbl>   <dbl>   <dbl>
 1 Afghan…  2010 bcg     Econom… Quinti…    532.    53.8      NA      NA      NA
 2 Afghan…  2010 bcg     Econom… Quinti…    549.    61.9      NA      NA      NA
 3 Afghan…  2010 bcg     Econom… Quinti…    495.    58.1      NA      NA      NA
 4 Afghan…  2010 bcg     Econom… Quinti…    473.    65.1      NA      NA      NA
 5 Afghan…  2010 bcg     Econom… Quinti…    447.    77.9      NA      NA      NA
 6 Afghan…  2010 bcg     Educat… No edu…   2267.    61.1      NA      NA      NA
 7 Afghan…  2010 bcg     Educat… Primar…    122.    76.3      NA      NA      NA
 8 Afghan…  2010 bcg     Educat… Second…    108.    85.9      NA      NA      NA
 9 Afghan…  2010 bcg     Place … Rural     2060.    59.8      NA      NA      NA
10 Afghan…  2010 bcg     Place … Urban      436.    77.3      NA      NA      NA
# … with 7,463 more rows, 10 more variables: `Case detection rate (%)` <dbl>,
#   `TB incidence (new infections per 100 000 population)` <dbl>,
#   `TB mortality (deaths per 100 000 population)` <dbl>,
#   `People with MDR/RR-TB (%)` <dbl>,
#   `People who would want a family member's TB kept secret (%)` <dbl>,
#   `People who would want a family member's TB kept secret - Male (%)` <dbl>,
#   `TB prevalence (cases per 100 000 population)` <dbl>, …
…
